{
  "manage": {
    "name": "Manage",
    "section": "dev",
    "groups": [
      "authentication_and_authorization",
      "workspace",
      "compliance",
      "import",
      "optimize",
      "integrations",
      "foundations"
    ],
    "label": "devops::manage"
  },
  "plan": {
    "name": "Plan",
    "section": "dev",
    "groups": [
      "project_management",
      "product_planning",
      "certify"
    ],
    "label": "devops::plan"
  },
  "create": {
    "name": "Create",
    "section": "dev",
    "groups": [
      "source_code",
      "code_review",
      "editor",
      "gitaly"
    ],
    "label": "devops::create"
  },
  "verify": {
    "name": "Verify",
    "section": "ops",
    "groups": [
      "pipeline_execution",
      "pipeline_authoring",
      "runner",
      "testing"
    ],
    "label": "devops::verify"
  },
  "package": {
    "name": "Package",
    "section": "ops",
    "groups": [
      "package"
    ],
    "label": "devops::package"
  },
  "secure": {
    "name": "Secure",
    "section": "sec",
    "groups": [
      "static_analysis",
      "dynamic_analysis",
      "composition_analysis",
      "threat_insights",
      "vulnerability_research"
    ],
    "label": "devops::secure"
  },
  "release": {
    "name": "Release",
    "section": "ops",
    "groups": [
      "release"
    ],
    "label": "devops::release"
  },
  "configure": {
    "name": "Configure",
    "section": "ops",
    "groups": [
      "configure"
    ],
    "label": "devops::configure"
  },
  "monitor": {
    "name": "Monitor",
    "section": "ops",
    "groups": [
      "monitor"
    ],
    "label": "devops::monitor"
  },
  "govern": {
    "name": "Govern",
    "section": "sec",
    "groups": [
      "security_policies",
      "threat_insights",
      "compliance"
    ],
    "label": "devops::govern"
  },
  "fulfillment": {
    "name": "Fulfillment",
    "section": "fulfillment",
    "groups": [
      "purchase",
      "license",
      "utilization"
    ],
    "label": "devops::fulfillment"
  },
  "growth": {
    "name": "Growth",
    "section": "growth",
    "groups": [
      "activation",
      "conversion",
      "expansion",
      "adoption",
      "product_intelligence"
    ],
    "label": "devops::growth"
  },
  "enablement": {
    "name": "Enablement",
    "section": "enablement",
    "groups": [
      "distribution_build",
      "distribution_deploy",
      "geo",
      "application_performance",
      "global_search",
      "database",
      "sharding"
    ],
    "label": "devops::enablement"
  },
  "platforms": {
    "name": "SaaS Platforms",
    "section": "platforms",
    "groups": [
      "delivery",
      "scalability",
      "horse"
    ],
    "label": "devops::platforms"
  },
  "anti-abuse": {
    "name": "Anti-Abuse",
    "section": "data-science",
    "groups": [
      "anti_abuse"
    ],
    "label": "devops::anti-abuse"
  },
  "modelops": {
    "name": "modelops",
    "section": "data-science",
    "groups": [
      "applied_ml",
      "mlops",
      "dataops"
    ],
    "label": "devops::modelops"
  },
  "mobile": {
    "name": "Mobile",
    "section": "seg",
    "groups": [
      "moble_devops"
    ],
    "label": "devops::mobile"
  },
  "deploy": {
    "name": "Deploy",
    "section": "seg",
    "groups": [
      "5-min-app"
    ],
    "label": "devops::deploy"
  }
}
